%YAML 1.1
%TAG !u! tag:unity3d.com,2011:
--- !u!114 &11400000
MonoBehaviour:
  m_ObjectHideFlags: 0
  m_CorrespondingSourceObject: {fileID: 0}
  m_PrefabInstance: {fileID: 0}
  m_PrefabAsset: {fileID: 0}
  m_GameObject: {fileID: 0}
  m_Enabled: 1
  m_EditorHideFlags: 0
  m_Script: {fileID: 11500000, guid: 4583971796f0bfa4ebe2d9d86273fde9, type: 3}
  m_Name: Gnom
  m_EditorClassIdentifier: 
  name: Gnom
  ID: 0
  sprite: {fileID: 21300000, guid: b47ae831b7feb724e84f16b75796a95f, type: 3}
  unitCost: 100
  maxHealth: 100
  demage: 10
